…
2. Calculate and report the **mean** and **median** total number of steps taken per day

```r
means <- summarise(group_by(data,date), mean = mean(steps), median = median(steps))
means
```

```
## # A tibble: 53 x 3
##    date         mean median
##    <date>      <dbl>  <dbl>
##  1 2012-10-02  0.438      0
##  2 2012-10-03 39.4        0
##  3 2012-10-04 42.1        0
##  4 2012-10-05 46.2        0
##  5 2012-10-06 53.5        0
##  6 2012-10-07 38.2        0
##  7 2012-10-09 44.5        0
##  8 2012-10-10 34.4        0
##  9 2012-10-11 35.8        0
## 10 2012-10-12 60.4        0
## # ... with 43 more rows
```
…
